{
  "name": "login-page",
  "version": "1.0.0",
  "jetVersion": "^8.1.0",
  "displayName": "A user friendly, translatable name of the component.",
  "description": "A translatable high-level description for the component.",
  "properties": {

  },
  "methods": {

  }, 
  "events": {

  }, 
  "slots": {

  }
}